Tidy bootstrapping
…
We can use the bootstraps function in the rsample package to sample bootstrap replications. First, we construct 100 bootstrap replications of the data, each of which has been randomly sampled with replacement. The resulting object is an rset, which is a dataframe with a column of rsplit objects.

An rsplit object has two main components: an analysis dataset and an assessment dataset, accessible via analysis(rsplit) and assessment(rsplit) respectively. For bootstrap samples, the analysis dataset is the bootstrap sample itself, and the assessment dataset consists of all the out of bag samples.

library(dplyr)
library(rsample)
library(broom)
library(purrr)

set.seed(27)

boots <- bootstraps(mtcars, times = 100)
boots
#> # Bootstrap sampling 
#> # A tibble: 100 x 2
#>    splits          id          
#>    <list>          <chr>       
#>  1 <split [32/13]> Bootstrap001
#>  2 <split [32/10]> Bootstrap002
#>  3 <split [32/13]> Bootstrap003
#>  4 <split [32/11]> Bootstrap004
#>  5 <split [32/9]>  Bootstrap005
#>  6 <split [32/10]> Bootstrap006
#>  7 <split [32/11]> Bootstrap007
#>  8 <split [32/13]> Bootstrap008
#>  9 <split [32/11]> Bootstrap009
#> 10 <split [32/11]> Bootstrap010
#> # … with 90 more rows
…
fit_nls_on_bootstrap <- function(split) {
    nls(mpg ~ k / wt + b, analysis(split), start = list(k = 1, b = 0))
}

boot_models <- boots %>% 
    mutate(model = map(splits, fit_nls_on_bootstrap),
           coef_info = map(model, tidy))

boot_coefs <- boot_models %>% 
    unnest(coef_info)

The unnested coefficient information contains a summary of each replication combined in a single data frame:

boot_coefs
#> # A tibble: 200 x 8
#>    splits         id           model term  estimate std.error statistic  p.value
#>    <list>         <chr>        <lis> <chr>    <dbl>     <dbl>     <dbl>    <dbl>
#>  1 <split [32/13… Bootstrap001 <nls> k        42.1       4.05     10.4  1.91e-11
#>  2 <split [32/13… Bootstrap001 <nls> b         5.39      1.43      3.78 6.93e- 4
#>  3 <split [32/10… Bootstrap002 <nls> k        49.9       5.66      8.82 7.82e-10
#>  4 <split [32/10… Bootstrap002 <nls> b         3.73      1.92      1.94 6.13e- 2
#>  5 <split [32/13… Bootstrap003 <nls> k        37.8       2.68     14.1  9.01e-15
#>  6 <split [32/13… Bootstrap003 <nls> b         6.73      1.17      5.75 2.78e- 6
#>  7 <split [32/11… Bootstrap004 <nls> k        45.6       4.45     10.2  2.70e-11
#>  8 <split [32/11… Bootstrap004 <nls> b         4.75      1.62      2.93 6.38e- 3
#>  9 <split [32/9]> Bootstrap005 <nls> k        43.6       4.63      9.41 1.85e-10
#> 10 <split [32/9]> Bootstrap005 <nls> b         5.89      1.68      3.51 1.44e- 3
#> # … with 190 more rows
…
Or we can use augment to visualize the uncertainty in the curve:

boot_aug <- boot_models %>% 
    mutate(augmented = map(model, augment)) %>% 
    unnest(augmented)

boot_aug
#> # A tibble: 3,200 x 8
#>    splits          id           model coef_info         mpg    wt .fitted .resid
#>    <list>          <chr>        <lis> <list>          <dbl> <dbl>   <dbl>  <dbl>
#>  1 <split [32/13]> Bootstrap001 <nls> <tibble [2 × 5…  18.7  3.44    17.6  1.08 
#>  2 <split [32/13]> Bootstrap001 <nls> <tibble [2 × 5…  32.4  2.2     24.5  7.89 
#>  3 <split [32/13]> Bootstrap001 <nls> <tibble [2 × 5…  15.5  3.52    17.3 -1.84 
#>  4 <split [32/13]> Bootstrap001 <nls> <tibble [2 × 5…  22.8  3.15    18.7  4.05 
#>  5 <split [32/13]> Bootstrap001 <nls> <tibble [2 × 5…  24.4  3.19    18.6  5.82 
#>  6 <split [32/13]> Bootstrap001 <nls> <tibble [2 × 5…  30.4  1.62    31.4 -1.04 
#>  7 <split [32/13]> Bootstrap001 <nls> <tibble [2 × 5…  10.4  5.42    13.1 -2.75 
#>  8 <split [32/13]> Bootstrap001 <nls> <tibble [2 × 5…  21    2.62    21.4 -0.448
#>  9 <split [32/13]> Bootstrap001 <nls> <tibble [2 × 5…  19.2  3.84    16.3  2.87 
#> 10 <split [32/13]> Bootstrap001 <nls> <tibble [2 × 5…  21    2.62    21.4 -0.448
#> # … with 3,190 more rows
…
